{
    "$schema": "https://docs.renovatebot.com/renovate-schema.json",
    "extends": [
        "config:recommended"
    ],
    "timezone": "Australia/Brisbane",

    // Scheduling
    // https://docs.renovatebot.com/key-concepts/scheduling/
    "description": "Schedule on weekends",
    "schedule": [
        "* 15 * * 5", // Anytime after 15:00 on Friday
        "* * * * 6,0" // Anytime on Saturday (6) and Sunday (0)
    ]
}
